<?xml version="1.0"?>
<MethodSetup Method="LD::LD">
  <GeneralInfo>
    <Info name="TMVA Release" value="4.2.1 [262657]"/>
    <Info name="ROOT Release" value="6.09/03 [395523]"/>
    <Info name="Creator" value="mlisovyi"/>
    <Info name="Date" value="Wed Mar 22 15:36:46 2017"/>
    <Info name="Host" value="Linux lcgapp-slc6-x86-64-3.cern.ch 2.6.32-642.4.2.el6.x86_64 #1 SMP Wed Aug 24 09:19:54 CEST 2016 x86_64 x86_64 x86_64 GNU/Linux"/>
    <Info name="Dir" value="/nfs/dust/atlas/user/mlisovyi/IML_tutorial/IMLWorkshop2017-Challenge/Examples/TMVA"/>
    <Info name="Training events" value="2000000"/>
    <Info name="TrainingTime" value="5.73129892e+00"/>
    <Info name="AnalysisType" value="Classification"/>
  </GeneralInfo>
  <Options>
    <Option name="V" modified="Yes">False</Option>
    <Option name="VerbosityLevel" modified="No">Default</Option>
    <Option name="VarTransform" modified="Yes">None</Option>
    <Option name="H" modified="Yes">True</Option>
    <Option name="CreateMVAPdfs" modified="Yes">True</Option>
    <Option name="IgnoreNegWeightsInTraining" modified="No">False</Option>
  </Options>
  <Variables NVar="14">
    <Variable VarIndex="0" Expression="jetPt" Label="jetPt" Title="jetPt" Unit="" Internal="jetPt" Type="F" Min="1.00000000e+02" Max="1.30000000e+02"/>
    <Variable VarIndex="1" Expression="jetEta" Label="jetEta" Title="jetEta" Unit="" Internal="jetEta" Type="F" Min="-4.55203342e+00" Max="4.65586376e+00"/>
    <Variable VarIndex="2" Expression="jetPhi" Label="jetPhi" Title="jetPhi" Unit="" Internal="jetPhi" Type="F" Min="-3.14158511e+00" Max="3.14158821e+00"/>
    <Variable VarIndex="3" Expression="jetMass" Label="jetMass" Title="jetMass" Unit="" Internal="jetMass" Type="F" Min="-2.64289974e-05" Max="3.68388748e+01"/>
    <Variable VarIndex="4" Expression="ntracks" Label="ntracks" Title="ntracks" Unit="" Internal="ntracks" Type="F" Min="0.00000000e+00" Max="3.40000000e+01"/>
    <Variable VarIndex="5" Expression="ntowers" Label="ntowers" Title="ntowers" Unit="" Internal="ntowers" Type="F" Min="0.00000000e+00" Max="4.70000000e+01"/>
    <Variable VarIndex="6" Expression="ntracksR01" Label="ntracksR01" Title="ntracksR01" Unit="" Internal="ntracksR01" Type="F" Min="0.00000000e+00" Max="1.60000000e+01"/>
    <Variable VarIndex="7" Expression="ntracksR02" Label="ntracksR02" Title="ntracksR02" Unit="" Internal="ntracksR02" Type="F" Min="0.00000000e+00" Max="1.70000000e+01"/>
    <Variable VarIndex="8" Expression="ntracksR03" Label="ntracksR03" Title="ntracksR03" Unit="" Internal="ntracksR03" Type="F" Min="0.00000000e+00" Max="1.80000000e+01"/>
    <Variable VarIndex="9" Expression="ntowersR01" Label="ntowersR01" Title="ntowersR01" Unit="" Internal="ntowersR01" Type="F" Min="0.00000000e+00" Max="2.40000000e+01"/>
    <Variable VarIndex="10" Expression="ntowersR02" Label="ntowersR02" Title="ntowersR02" Unit="" Internal="ntowersR02" Type="F" Min="0.00000000e+00" Max="2.30000000e+01"/>
    <Variable VarIndex="11" Expression="ntowersR03" Label="ntowersR03" Title="ntowersR03" Unit="" Internal="ntowersR03" Type="F" Min="0.00000000e+00" Max="2.00000000e+01"/>
    <Variable VarIndex="12" Expression="maxPtTrkFrac" Label="maxPtTrkFrac" Title="maxPtTrkFrac" Unit="" Internal="maxPtTrkFrac" Type="F" Min="0.00000000e+00" Max="1.00000000e+00"/>
    <Variable VarIndex="13" Expression="maxETowFrac" Label="maxETowFrac" Title="maxETowFrac" Unit="" Internal="maxETowFrac" Type="F" Min="0.00000000e+00" Max="1.00000012e+00"/>
  </Variables>
  <Spectators NSpec="0"/>
  <Classes NClass="2">
    <Class Name="quarks" Index="0"/>
    <Class Name="gluons" Index="1"/>
  </Classes>
  <Transformations NTransformations="0"/>
  <MVAPdfs>
    <PDF Name="LD_PDFSig" MinNSmooth="10" MaxNSmooth="10" InterpolMethod="2" KDE_type="1" KDE_iter="1" KDE_border="1" KDE_finefactor="1.0000000000000000e+00">
      <Histogram Name="LD_tr_S_original" NBins="50" XMin="-1.4429755210876465e+00" XMax="4.4047924876213074e-01" HasEquidistantBins="1">
        2.65469874e-05 2.65469874e-05 2.65469874e-05 1.06187950e-04 1.32734937e-04 3.45110836e-04 3.18563849e-04 9.29144558e-04 1.30080238e-03 2.52196380e-03 3.58384330e-03 7.08804563e-03 1.04595130e-02 1.44681081e-02 2.33613489e-02 3.63428257e-02 5.34390856e-02 7.71189983e-02 1.03639439e-01 1.45928790e-01 1.97429945e-01 2.59364067e-01 3.38341354e-01 4.29078957e-01 5.37178290e-01 6.54277051e-01 8.01028797e-01 9.55107512e-01 1.13984800e+00 1.32326113e+00 1.52233699e+00 1.73949135e+00 1.91135654e+00 2.07616024e+00 2.14210296e+00 2.12219272e+00 1.96429124e+00 1.73906660e+00 1.41452968e+00 1.06256972e+00 7.36201054e-01 4.63483853e-01 2.69664298e-01 1.43194450e-01 6.90221672e-02 3.37412210e-02 1.45742961e-02 4.61917580e-03 1.75210117e-03 5.30939748e-04 
      </Histogram>
    </PDF>
    <PDF Name="LD_PDFBkg" MinNSmooth="10" MaxNSmooth="10" InterpolMethod="2" KDE_type="1" KDE_iter="1" KDE_border="1" KDE_finefactor="1.0000000000000000e+00">
      <Histogram Name="LD_tr_B_original" NBins="50" XMin="-1.4429755210876465e+00" XMax="4.4047924876213074e-01" HasEquidistantBins="1">
        1.85828726e-04 2.12375687e-04 3.71657452e-04 6.63674021e-04 1.43353588e-03 2.89361873e-03 5.33593913e-03 6.39781756e-03 1.37778727e-02 2.12375687e-02 3.55463806e-02 5.41292531e-02 8.33043631e-02 1.24850357e-01 1.79988394e-01 2.54346432e-01 3.53074579e-01 4.75641897e-01 6.28340016e-01 7.85471477e-01 9.80671280e-01 1.18001241e+00 1.38007031e+00 1.56520881e+00 1.71148256e+00 1.81790933e+00 1.86078267e+00 1.84466867e+00 1.77195654e+00 1.64238083e+00 1.47643577e+00 1.29209368e+00 1.09925655e+00 9.25586336e-01 7.49792362e-01 6.19022033e-01 4.83234328e-01 3.78267645e-01 2.73858448e-01 1.90554085e-01 1.23018616e-01 7.34819876e-02 4.09088666e-02 2.02287842e-02 1.10700827e-02 4.77845295e-03 1.93792814e-03 8.76049707e-04 1.59281765e-04 5.30939217e-05 
      </Histogram>
    </PDF>
  </MVAPdfs>
  <Weights NOut="1" NCoeff="15">
    <Coefficient IndexOut="0" IndexCoeff="0" Value="3.1738001968084839e-01"/>
    <Coefficient IndexOut="0" IndexCoeff="1" Value="-3.3512176759495013e-04"/>
    <Coefficient IndexOut="0" IndexCoeff="2" Value="1.9316480182807801e-04"/>
    <Coefficient IndexOut="0" IndexCoeff="3" Value="-2.4409669457474967e-04"/>
    <Coefficient IndexOut="0" IndexCoeff="4" Value="-6.7652300424738132e-03"/>
    <Coefficient IndexOut="0" IndexCoeff="5" Value="-2.7161490472934331e-02"/>
    <Coefficient IndexOut="0" IndexCoeff="6" Value="-2.2119837805310891e-02"/>
    <Coefficient IndexOut="0" IndexCoeff="7" Value="-1.6473032710016544e-02"/>
    <Coefficient IndexOut="0" IndexCoeff="8" Value="-5.9811600172068047e-03"/>
    <Coefficient IndexOut="0" IndexCoeff="9" Value="1.1603506179421880e-03"/>
    <Coefficient IndexOut="0" IndexCoeff="10" Value="-8.0022652738834243e-04"/>
    <Coefficient IndexOut="0" IndexCoeff="11" Value="2.6420505818137152e-03"/>
    <Coefficient IndexOut="0" IndexCoeff="12" Value="4.9723137756211679e-03"/>
    <Coefficient IndexOut="0" IndexCoeff="13" Value="2.0028593147537066e-01"/>
    <Coefficient IndexOut="0" IndexCoeff="14" Value="4.3251752396574972e-02"/>
  </Weights>
</MethodSetup>
